\relax 
\providecommand\hyper@newdestlabel[2]{}
\providecommand\HyperFirstAtBeginDocument{\AtBeginDocument}
\HyperFirstAtBeginDocument{\ifx\hyper@anchor\@undefined
\global\let\oldcontentsline\contentsline
\gdef\contentsline#1#2#3#4{\oldcontentsline{#1}{#2}{#3}}
\global\let\oldnewlabel\newlabel
\gdef\newlabel#1#2{\newlabelxx{#1}#2}
\gdef\newlabelxx#1#2#3#4#5#6{\oldnewlabel{#1}{{#2}{#3}}}
\AtEndDocument{\ifx\hyper@anchor\@undefined
\let\contentsline\oldcontentsline
\let\newlabel\oldnewlabel
\fi}
\fi}
\global\let\hyper@last\relax 
\gdef\HyperFirstAtBeginDocument#1{#1}
\providecommand\HyField@AuxAddToFields[1]{}
\providecommand\HyField@AuxAddToCoFields[2]{}
\citation{hua2014}
\citation{cox2014}
\citation{bou2014}
\citation{pra2014}
\citation{vuj2014}
\citation{mio2012}
\@writefile{toc}{\contentsline {chapter}{\numberline {1}Introduction}{1}{chapter.1}}
\@writefile{lof}{\addvspace {10\p@ }}
\@writefile{lot}{\addvspace {10\p@ }}
\@writefile{toc}{\contentsline {section}{\numberline {1.1}Research Statement}{2}{section.1.1}}
\newlabel{sec:research_statement}{{1.1}{2}{Research Statement}{section.1.1}{}}
\@writefile{toc}{\contentsline {section}{\numberline {1.2}Research Goals}{2}{section.1.2}}
\newlabel{sec:goals}{{1.2}{2}{Research Goals}{section.1.2}{}}
\@writefile{toc}{\contentsline {section}{\numberline {1.3}Research Questions}{2}{section.1.3}}
\newlabel{sec:questions}{{1.3}{2}{Research Questions}{section.1.3}{}}
\@writefile{toc}{\contentsline {section}{\numberline {1.4}Research Approach}{3}{section.1.4}}
\newlabel{sec:research_approach}{{1.4}{3}{Research Approach}{section.1.4}{}}
\@writefile{toc}{\contentsline {section}{\numberline {1.5}Thesis Structure}{3}{section.1.5}}
\newlabel{sec:thesis_structure}{{1.5}{3}{Thesis Structure}{section.1.5}{}}
\citation{ngu2015}
\citation{kau2010}
\citation{vuj2015}
\@writefile{toc}{\contentsline {chapter}{\numberline {2}Literature Review}{5}{chapter.2}}
\@writefile{lof}{\addvspace {10\p@ }}
\@writefile{lot}{\addvspace {10\p@ }}
\newlabel{chapter:litreview}{{2}{5}{Literature Review}{chapter.2}{}}
\citation{kau2010}
\citation{kau2010}
\citation{kau2010}
\citation{kau2010}
\citation{lyo2007}
\citation{hoy2015}
\citation{hoy2015}
\citation{lyo2007}
\@writefile{toc}{\contentsline {section}{\numberline {2.1}Automated Surveillance Systems}{6}{section.2.1}}
\citation{bou2014,lyo2007}
\citation{sha2007}
\citation{lyo2007}
\citation{sha2007}
\citation{iec2014}
\citation{oth2008}
\citation{oth2008}
\citation{fer2014}
\@writefile{toc}{\contentsline {section}{\numberline {2.2}Wireless Sensor Networks}{7}{section.2.2}}
\newlabel{sec:wsn}{{2.2}{7}{Wireless Sensor Networks}{section.2.2}{}}
\citation{gub2013}
\citation{oth2008}
\citation{fer2014}
\citation{oth2008}
\citation{bel2014}
\citation{fer2014}
\citation{bie2015}
\citation{bel2014}
\citation{bel2014}
\citation{bel2014}
\citation{xia2012}
\citation{kau2010}
\citation{xia2012}
\citation{mio2012}
\citation{mio2012}
\citation{xia2012}
\citation{fer2014}
\citation{iec2014}
\citation{oth2008,fer2014}
\@writefile{toc}{\contentsline {subsection}{\numberline {2.2.1}Internet of Things}{9}{subsection.2.2.1}}
\@writefile{toc}{\contentsline {subsection}{\numberline {2.2.2}ZigBee Protocol}{9}{subsection.2.2.2}}
\citation{iov2004}
\citation{iov2004}
\citation{hua2014}
\citation{hua2014}
\citation{atm2016}
\citation{hua2014}
\@writefile{toc}{\contentsline {section}{\numberline {2.3}Micro-controllers}{10}{section.2.3}}
\newlabel{sec:micro-controllers}{{2.3}{10}{Micro-controllers}{section.2.3}{}}
\@writefile{toc}{\contentsline {subsection}{\numberline {2.3.1}Atmel Range}{10}{subsection.2.3.1}}
\citation{hua2014}
\citation{atm2016}
\citation{atm2016}
\citation{atm2016}
\citation{may2009}
\citation{may2009}
\citation{xmo2016}
\citation{xmo2016}
\@writefile{toc}{\contentsline {subsection}{\numberline {2.3.2}XMOS}{11}{subsection.2.3.2}}
\citation{xmo2016}
\citation{wat2009}
\citation{sch2013}
\citation{sch2013}
\citation{sch2013}
\citation{sch2013}
\citation{sch2013}
\@writefile{toc}{\contentsline {subsection}{\numberline {2.3.3}Arduino}{12}{subsection.2.3.3}}
\citation{ard2016}
\citation{cox2014}
\citation{dix2014}
\citation{vuj2015}
\citation{vuj2015}
\citation{ras2016}
\citation{ras2016}
\@writefile{toc}{\contentsline {subsection}{\numberline {2.3.4}Raspberry Pi}{13}{subsection.2.3.4}}
\citation{ras2016}
\citation{cox2014}
\citation{cox2014}
\citation{ped2011}
\citation{lut2009}
\citation{lut2009}
\@writefile{toc}{\contentsline {section}{\numberline {2.4}Software}{14}{section.2.4}}
\newlabel{sec:software}{{2.4}{14}{Software}{section.2.4}{}}
\@writefile{toc}{\contentsline {subsection}{\numberline {2.4.1}Python}{14}{subsection.2.4.1}}
\newlabel{subsection:python}{{2.4.1}{14}{Python}{subsection.2.4.1}{}}
\citation{gru2015}
\citation{cox2014}
\citation{pyt2016}
\citation{pyt2016}
\citation{pyt2016}
\citation{pyt2016}
\citation{gru2015}
\citation{pyt2016}
\citation{pyt2016}
\citation{pyt2016}
\citation{gru2015}
\citation{ras2016}
\citation{ras2016}
\citation{ubu2016}
\citation{ubu2016}
\citation{ubu2016}
\@writefile{toc}{\contentsline {subsection}{\numberline {2.4.2}Raspbian Operating System}{16}{subsection.2.4.2}}
\newlabel{subsec:raspbian_os}{{2.4.2}{16}{Raspbian Operating System}{subsection.2.4.2}{}}
\citation{bra2008}
\citation{ope2016a}
\citation{paj2015}
\citation{ope2016a}
\citation{sim2016}
\citation{dem2012}
\@writefile{toc}{\contentsline {subsection}{\numberline {2.4.3}Ubuntu}{17}{subsection.2.4.3}}
\@writefile{toc}{\contentsline {subsection}{\numberline {2.4.4}OpenCV}{17}{subsection.2.4.4}}
\newlabel{subsec:opencv_litreview}{{2.4.4}{17}{OpenCV}{subsection.2.4.4}{}}
\@writefile{toc}{\contentsline {subsection}{\numberline {2.4.5}SimpleCV}{17}{subsection.2.4.5}}
\citation{dem2012}
\citation{mot2016}
\citation{mot2016}
\citation{afo2016}
\citation{paj2015}
\citation{paj2015}
\citation{dem2012}
\@writefile{toc}{\contentsline {subsection}{\numberline {2.4.6}Motion Libraries}{18}{subsection.2.4.6}}
\newlabel{subsection:motion_lib}{{2.4.6}{18}{Motion Libraries}{subsection.2.4.6}{}}
\@writefile{toc}{\contentsline {section}{\numberline {2.5}Image Processing}{18}{section.2.5}}
\newlabel{sec:image_proc}{{2.5}{18}{Image Processing}{section.2.5}{}}
\citation{son2014}
\citation{son2014}
\citation{sol2011}
\citation{zha2013}
\citation{sol2011}
\citation{sol2011}
\citation{sol2011}
\citation{zha2013}
\@writefile{toc}{\contentsline {subsection}{\numberline {2.5.1}Image Segmentation}{19}{subsection.2.5.1}}
\citation{sol2011}
\citation{for2008}
\citation{sol2011}
\citation{sol2011}
\citation{sol2011}
\citation{bou2014}
\@writefile{toc}{\contentsline {subsection}{\numberline {2.5.2}Feature Extraction}{20}{subsection.2.5.2}}
\citation{sol2011}
\citation{for2008}
\citation{for2008}
\citation{sch2013,dix2014,vuj2014}
\citation{dix2014}
\citation{vuj2015}
\citation{jai2014}
\citation{vuj2014}
\@writefile{toc}{\contentsline {subsection}{\numberline {2.5.3}Shape Approximation}{21}{subsection.2.5.3}}
\@writefile{toc}{\contentsline {section}{\numberline {2.6}Related Work}{21}{section.2.6}}
\newlabel{sec:related_work}{{2.6}{21}{Related Work}{section.2.6}{}}
\citation{wat2009}
\citation{wat2009,cox2014}
\citation{sch2013}
\citation{xmo2016,atm2016,sch2013,ard2016}
\citation{ing2014}
\citation{ing2014}
\citation{cox2014}
\citation{ing2014}
\citation{bie2015}
\citation{bie2015}
\citation{bie2015}
\citation{mot2016}
\citation{ras2016}
\citation{xmo2016}
\@writefile{toc}{\contentsline {section}{\numberline {2.7}Summary}{23}{section.2.7}}
\citation{fer2014}
\@writefile{toc}{\contentsline {chapter}{\numberline {3}Sensor Network Design Considerations}{25}{chapter.3}}
\@writefile{lof}{\addvspace {10\p@ }}
\@writefile{lot}{\addvspace {10\p@ }}
\newlabel{chapter:design}{{3}{25}{Sensor Network Design Considerations}{chapter.3}{}}
\@writefile{toc}{\contentsline {section}{\numberline {3.1}High-level Design Overview}{26}{section.3.1}}
\newlabel{sec:overview_des}{{3.1}{26}{High-level Design Overview}{section.3.1}{}}
\@writefile{lof}{\contentsline {figure}{\numberline {3.1}{\ignorespaces An overview of the proposed visual web sensor surveillance network.\relax }}{26}{figure.caption.5}}
\providecommand*\caption@xref[2]{\@setref\relax\@undefined{#1}}
\newlabel{fig:network}{{3.1}{26}{An overview of the proposed visual web sensor surveillance network.\relax }{figure.caption.5}{}}
\citation{hua2014}
\citation{fer2014}
\citation{ras2016}
\citation{ard2016}
\citation{ras2016}
\citation{cox2014}
\@writefile{toc}{\contentsline {section}{\numberline {3.2}Micro-controllers}{28}{section.3.2}}
\newlabel{sec:micro}{{3.2}{28}{Micro-controllers}{section.3.2}{}}
\@writefile{toc}{\contentsline {section}{\numberline {3.3}Network Devices}{29}{section.3.3}}
\newlabel{sec:net}{{3.3}{29}{Network Devices}{section.3.3}{}}
\@writefile{toc}{\contentsline {subsection}{\numberline {3.3.1}Network Switch}{29}{subsection.3.3.1}}
\newlabel{subsec:switch}{{3.3.1}{29}{Network Switch}{subsection.3.3.1}{}}
\@writefile{toc}{\contentsline {subsection}{\numberline {3.3.2}IP Camera}{29}{subsection.3.3.2}}
\newlabel{subsec:ip_cam}{{3.3.2}{29}{IP Camera}{subsection.3.3.2}{}}
\citation{dli2016}
\citation{isp2016}
\newlabel{lst:ip_url}{{3.1}{30}{D-Link DCS930-L video stream URL}{lstlisting.3.1}{}}
\@writefile{lol}{\contentsline {lstlisting}{\numberline {3.1}D-Link DCS930-L video stream URL}{30}{lstlisting.3.1}}
\citation{all2003}
\newlabel{lst:video_stream}{{3.2}{31}{Sample Python/OpenCV code to enable video stream from URL source}{lstlisting.3.2}{}}
\@writefile{lol}{\contentsline {lstlisting}{\numberline {3.2}Sample Python/OpenCV code to enable video stream from URL source}{31}{lstlisting.3.2}}
\@writefile{toc}{\contentsline {subsection}{\numberline {3.3.3}Wi-Fi Protocols}{31}{subsection.3.3.3}}
\newlabel{subsec:wifi_protocols}{{3.3.3}{31}{Wi-Fi Protocols}{subsection.3.3.3}{}}
\newlabel{lst:wpa_supplicant}{{3.3}{31}{WPA\_supplicant file configuration entry for PEAP Wi-Fi connectivity}{lstlisting.3.3}{}}
\@writefile{lol}{\contentsline {lstlisting}{\numberline {3.3}WPA\_supplicant file configuration entry for PEAP Wi-Fi connectivity}{31}{lstlisting.3.3}}
\citation{ras2016}
\citation{ras2016}
\@writefile{toc}{\contentsline {section}{\numberline {3.4}USB and CSI Devices}{32}{section.3.4}}
\newlabel{sec:usb_csi}{{3.4}{32}{USB and CSI Devices}{section.3.4}{}}
\@writefile{toc}{\contentsline {subsection}{\numberline {3.4.1}USB Camera}{32}{subsection.3.4.1}}
\@writefile{toc}{\contentsline {subsection}{\numberline {3.4.2}Pi Camera Module}{32}{subsection.3.4.2}}
\citation{mon2016,ras2016}
\citation{ras2016}
\@writefile{toc}{\contentsline {section}{\numberline {3.5}Operating Systems}{33}{section.3.5}}
\newlabel{sec:os}{{3.5}{33}{Operating Systems}{section.3.5}{}}
\@writefile{toc}{\contentsline {subsection}{\numberline {3.5.1}Raspbian Jessie 4.4}{33}{subsection.3.5.1}}
\citation{ras2016}
\citation{ubu2016}
\citation{tho2006}
\@writefile{toc}{\contentsline {subsection}{\numberline {3.5.2}Ubuntu MATE Desktop 16.04}{34}{subsection.3.5.2}}
\@writefile{toc}{\contentsline {section}{\numberline {3.6}Image Processing Libraries}{34}{section.3.6}}
\newlabel{sec:img_proc}{{3.6}{34}{Image Processing Libraries}{section.3.6}{}}
\@writefile{toc}{\contentsline {subsection}{\numberline {3.6.1}Pillow (PIL) and imutils}{35}{subsection.3.6.1}}
\newlabel{lst:imutils_comparison}{{3.4}{35}{Scaling an image using OpenCV vs. imutils Python package}{lstlisting.3.4}{}}
\@writefile{lol}{\contentsline {lstlisting}{\numberline {3.4}Scaling an image using OpenCV vs. imutils Python package}{35}{lstlisting.3.4}}
\newlabel{ln:scaled_opencv}{{5}{35}{Scaling an image using OpenCV vs. imutils Python package}{lstnumber.3.4.5}{}}
\newlabel{ln:scaled_imutils}{{8}{35}{Scaling an image using OpenCV vs. imutils Python package}{lstnumber.3.4.8}{}}
\citation{ope2016a}
\citation{bra2008}
\citation{afo2016}
\citation{int2016}
\@writefile{toc}{\contentsline {subsection}{\numberline {3.6.2}NumPy}{36}{subsection.3.6.2}}
\newlabel{subsec:numpy}{{3.6.2}{36}{NumPy}{subsection.3.6.2}{}}
\@writefile{toc}{\contentsline {subsection}{\numberline {3.6.3}OpenCV}{36}{subsection.3.6.3}}
\newlabel{subsec:opencv}{{3.6.3}{36}{OpenCV}{subsection.3.6.3}{}}
\newlabel{lst:fourcc}{{3.5}{38}{OpenCV FOURCC codec specification}{lstlisting.3.5}{}}
\@writefile{lol}{\contentsline {lstlisting}{\numberline {3.5}OpenCV FOURCC codec specification}{38}{lstlisting.3.5}}
\citation{ope2016a}
\citation{cox2014}
\citation{ped2011}
\citation{cox2014,gri2014}
\citation{lut2009}
\@writefile{toc}{\contentsline {section}{\numberline {3.7}Programming Languages}{39}{section.3.7}}
\newlabel{sec:prog_lang}{{3.7}{39}{Programming Languages}{section.3.7}{}}
\@writefile{toc}{\contentsline {subsection}{\numberline {3.7.1}Justification for Python}{39}{subsection.3.7.1}}
\citation{pyt2016}
\@writefile{toc}{\contentsline {subsection}{\numberline {3.7.2}Python 2.7 vs. Python 3}{40}{subsection.3.7.2}}
\@writefile{toc}{\contentsline {section}{\numberline {3.8}Miscellaneous Software}{40}{section.3.8}}
\newlabel{sec:misc_soft}{{3.8}{40}{Miscellaneous Software}{section.3.8}{}}
\@writefile{toc}{\contentsline {section}{\numberline {3.9}Summary}{41}{section.3.9}}
\@writefile{toc}{\contentsline {chapter}{\numberline {4}Sensor Network Implementation}{42}{chapter.4}}
\@writefile{lof}{\addvspace {10\p@ }}
\@writefile{lot}{\addvspace {10\p@ }}
\citation{lut2009}
\citation{lut2009}
\@writefile{toc}{\contentsline {section}{\numberline {4.1}Technical Programming Considerations}{43}{section.4.1}}
\newlabel{sec:program_considerations}{{4.1}{43}{Technical Programming Considerations}{section.4.1}{}}
\@writefile{toc}{\contentsline {subsection}{\numberline {4.1.1}Language and Key Features}{43}{subsection.4.1.1}}
\newlabel{fig:original_img}{{4.1a}{44}{Original image\relax }{figure.caption.6}{}}
\newlabel{sub@fig:original_img}{{a}{44}{Original image\relax }{figure.caption.6}{}}
\newlabel{fig:numpy_array}{{4.1b}{44}{OpenCV multi-dimensional array\relax }{figure.caption.6}{}}
\newlabel{sub@fig:numpy_array}{{b}{44}{OpenCV multi-dimensional array\relax }{figure.caption.6}{}}
\@writefile{lof}{\contentsline {figure}{\numberline {4.1}{\ignorespaces 4x4 pixel image represented as a NumPy array in OpenCV\relax }}{44}{figure.caption.6}}
\newlabel{fig:opencv_numpy}{{4.1}{44}{4x4 pixel image represented as a NumPy array in OpenCV\relax }{figure.caption.6}{}}
\@writefile{toc}{\contentsline {subsection}{\numberline {4.1.2}Compiler}{44}{subsection.4.1.2}}
\newlabel{lst:command_line}{{4.1}{44}{Command line instructions to execute motion detection program}{lstlisting.4.1}{}}
\@writefile{lol}{\contentsline {lstlisting}{\numberline {4.1}Command line instructions to execute motion detection program}{44}{lstlisting.4.1}}
\newlabel{lst:config_file}{{4.2}{45}{Configuration file sample}{lstlisting.4.2}{}}
\@writefile{lol}{\contentsline {lstlisting}{\numberline {4.2}Configuration file sample}{45}{lstlisting.4.2}}
\@writefile{toc}{\contentsline {subsection}{\numberline {4.1.3}Python Packages}{45}{subsection.4.1.3}}
\newlabel{subsec:python_packages}{{4.1.3}{45}{Python Packages}{subsection.4.1.3}{}}
\citation{kae2002}
\citation{kae2002}
\@writefile{lot}{\contentsline {table}{\numberline {4.1}{\ignorespaces Prerequisite Python packages\relax }}{46}{table.caption.7}}
\newlabel{table:packages}{{4.1}{46}{Prerequisite Python packages\relax }{table.caption.7}{}}
\@writefile{toc}{\contentsline {section}{\numberline {4.2}Algorithms}{46}{section.4.2}}
\newlabel{sec:algorithms}{{4.2}{46}{Algorithms}{section.4.2}{}}
\citation{god2012}
\citation{god2012}
\citation{kae2002}
\citation{ziv2004}
\citation{ziv2004}
\citation{god2012}
\@writefile{toc}{\contentsline {subsection}{\numberline {4.2.1}Background Subtraction}{47}{subsection.4.2.1}}
\newlabel{subsec:back_subt}{{4.2.1}{47}{Background Subtraction}{subsection.4.2.1}{}}
\newlabel{back_subt_algorithms}{{4.3}{48}{OpenCV background subtraction algorithms}{lstlisting.4.3}{}}
\@writefile{lol}{\contentsline {lstlisting}{\numberline {4.3}OpenCV background subtraction algorithms}{48}{lstlisting.4.3}}
\@writefile{toc}{\contentsline {subsection}{\numberline {4.2.2}Frame Differencing}{48}{subsection.4.2.2}}
\newlabel{subsec:frame_diff}{{4.2.2}{48}{Frame Differencing}{subsection.4.2.2}{}}
\citation{vio2001}
\newlabel{absdiff_alg}{{4.4}{49}{Simple frame differencing algorithm}{lstlisting.4.4}{}}
\@writefile{lol}{\contentsline {lstlisting}{\numberline {4.4}Simple frame differencing algorithm}{49}{lstlisting.4.4}}
\@writefile{toc}{\contentsline {subsection}{\numberline {4.2.3}Face Detection}{49}{subsection.4.2.3}}
\newlabel{subsec:face_detect}{{4.2.3}{49}{Face Detection}{subsection.4.2.3}{}}
\citation{zhu2006}
\citation{dal2005}
\citation{dal2005}
\newlabel{viola_jones_alg}{{4.5}{50}{Viola Jones rapid cascading algorithm}{lstlisting.4.5}{}}
\@writefile{lol}{\contentsline {lstlisting}{\numberline {4.5}Viola Jones rapid cascading algorithm}{50}{lstlisting.4.5}}
\citation{dal2005}
\@writefile{toc}{\contentsline {subsection}{\numberline {4.2.4}Histogram of Oriented Gradients}{51}{subsection.4.2.4}}
\newlabel{subsec:hist_grad}{{4.2.4}{51}{Histogram of Oriented Gradients}{subsection.4.2.4}{}}
\newlabel{lst:hog_alg}{{4.6}{51}{Histogram of gradients algorithm}{lstlisting.4.6}{}}
\@writefile{lol}{\contentsline {lstlisting}{\numberline {4.6}Histogram of gradients algorithm}{51}{lstlisting.4.6}}
\newlabel{ln:winStride}{{11}{51}{Histogram of gradients algorithm}{lstnumber.4.6.11}{}}
\citation{dal2005}
\citation{dal2005}
\citation{ope2016b}
\newlabel{ln:padding}{{12}{52}{Histogram of gradients algorithm}{lstnumber.4.6.12}{}}
\newlabel{ln:scale}{{13}{52}{Histogram of gradients algorithm}{lstnumber.4.6.13}{}}
\@writefile{lof}{\contentsline {figure}{\numberline {4.2}{\ignorespaces An image pyramid constructed by the HOG algorithm during computation\relax }}{53}{figure.caption.8}}
\newlabel{fig:pyramid}{{4.2}{53}{An image pyramid constructed by the HOG algorithm during computation\relax }{figure.caption.8}{}}
\@writefile{toc}{\contentsline {subsection}{\numberline {4.2.5}Still Frame Image Capture}{53}{subsection.4.2.5}}
\newlabel{subsec:still_frame}{{4.2.5}{53}{Still Frame Image Capture}{subsection.4.2.5}{}}
\newlabel{lst:still_frame_alg}{{4.7}{54}{Still frame capture algorithm}{lstlisting.4.7}{}}
\@writefile{lol}{\contentsline {lstlisting}{\numberline {4.7}Still frame capture algorithm}{54}{lstlisting.4.7}}
\@writefile{toc}{\contentsline {section}{\numberline {4.3}Network Configurations Implemented}{54}{section.4.3}}
\newlabel{sec:test_configs}{{4.3}{54}{Network Configurations Implemented}{section.4.3}{}}
\@writefile{lot}{\contentsline {table}{\numberline {4.2}{\ignorespaces Sensor network implementation configurations\relax }}{55}{table.caption.9}}
\newlabel{table:configurations}{{4.2}{55}{Sensor network implementation configurations\relax }{table.caption.9}{}}
\@writefile{toc}{\contentsline {subsection}{\numberline {4.3.1}Configuration 1 - Raspberry Pi Model 2B }{56}{subsection.4.3.1}}
\newlabel{subsec:con1}{{4.3.1}{56}{Configuration 1 - Raspberry Pi Model 2B}{subsection.4.3.1}{}}
\@writefile{toc}{\contentsline {subsection}{\numberline {4.3.2}Configuration 2 - Raspberry Pi 3}{56}{subsection.4.3.2}}
\newlabel{subsec:con2}{{4.3.2}{56}{Configuration 2 - Raspberry Pi 3}{subsection.4.3.2}{}}
\@writefile{toc}{\contentsline {subsection}{\numberline {4.3.3}Configuration 3 - Notebook Benchmark}{57}{subsection.4.3.3}}
\newlabel{subsec:con3}{{4.3.3}{57}{Configuration 3 - Notebook Benchmark}{subsection.4.3.3}{}}
\@writefile{toc}{\contentsline {section}{\numberline {4.4}User Interaction with Sensor Network}{58}{section.4.4}}
\newlabel{sec:user_interaction}{{4.4}{58}{User Interaction with Sensor Network}{section.4.4}{}}
\@writefile{lof}{\contentsline {figure}{\numberline {4.3}{\ignorespaces DropBox integration verification web page.\relax }}{59}{figure.caption.10}}
\newlabel{fig:dropbox_0}{{4.3}{59}{DropBox integration verification web page.\relax }{figure.caption.10}{}}
\@writefile{lof}{\contentsline {figure}{\numberline {4.4}{\ignorespaces Generated DropBox integration code shown in an example web page.\relax }}{59}{figure.caption.11}}
\newlabel{fig:dropbox_1}{{4.4}{59}{Generated DropBox integration code shown in an example web page.\relax }{figure.caption.11}{}}
\@writefile{toc}{\contentsline {section}{\numberline {4.5}Summary}{60}{section.4.5}}
\@writefile{toc}{\contentsline {chapter}{\numberline {5}Results and Discussion}{61}{chapter.5}}
\@writefile{lof}{\addvspace {10\p@ }}
\@writefile{lot}{\addvspace {10\p@ }}
\newlabel{chapter:findings_and_results}{{5}{61}{Results and Discussion}{chapter.5}{}}
\@writefile{toc}{\contentsline {section}{\numberline {5.1}Performance Indicators}{61}{section.5.1}}
\newlabel{sec:indicators}{{5.1}{61}{Performance Indicators}{section.5.1}{}}
\citation{bra2008}
\citation{kae2002}
\citation{ziv2004}
\citation{god2012}
\citation{vio2001}
\@writefile{toc}{\contentsline {section}{\numberline {5.2}Experimental Method}{63}{section.5.2}}
\newlabel{sec:experiments}{{5.2}{63}{Experimental Method}{section.5.2}{}}
\citation{dal2005}
\@writefile{toc}{\contentsline {section}{\numberline {5.3}Results of Initial Experiments}{64}{section.5.3}}
\newlabel{sec:findings}{{5.3}{64}{Results of Initial Experiments}{section.5.3}{}}
\@writefile{lof}{\contentsline {figure}{\numberline {5.1}{\ignorespaces Comparison of the average frame size in WMV and AVI video encoding formats.\relax }}{65}{figure.caption.12}}
\newlabel{fig:wmv_vs_avi}{{5.1}{65}{Comparison of the average frame size in WMV and AVI video encoding formats.\relax }{figure.caption.12}{}}
\citation{bra2008}
\@writefile{lot}{\contentsline {table}{\numberline {5.1}{\ignorespaces Light sensitivity experiment using USB, IP and Pi video cameras\relax }}{66}{table.caption.13}}
\newlabel{table:light_sensitivity}{{5.1}{66}{Light sensitivity experiment using USB, IP and Pi video cameras\relax }{table.caption.13}{}}
\citation{ras2016}
\citation{ras2016}
\@writefile{lot}{\contentsline {table}{\numberline {5.2}{\ignorespaces Power requirements of Raspberry Pi micro-controllers\relax }}{67}{table.caption.14}}
\newlabel{table:power_reqs}{{5.2}{67}{Power requirements of Raspberry Pi micro-controllers\relax }{table.caption.14}{}}
\citation{bie2015}
\@writefile{lot}{\contentsline {table}{\numberline {5.3}{\ignorespaces Average power draw of Raspberry Pi micro-controllers in various situations\relax }}{68}{table.caption.15}}
\newlabel{table:power_draw}{{5.3}{68}{Average power draw of Raspberry Pi micro-controllers in various situations\relax }{table.caption.15}{}}
\@writefile{toc}{\contentsline {section}{\numberline {5.4}Results of Algorithm Variations}{68}{section.5.4}}
\newlabel{sec:results}{{5.4}{68}{Results of Algorithm Variations}{section.5.4}{}}
\@writefile{toc}{\contentsline {subsection}{\numberline {5.4.1}Background Subtraction Algorithms}{69}{subsection.5.4.1}}
\newlabel{subsec:bg}{{5.4.1}{69}{Background Subtraction Algorithms}{subsection.5.4.1}{}}
\@writefile{lof}{\contentsline {figure}{\numberline {5.2}{\ignorespaces Percentage of false positives detected across all background subtraction algorithms drawing a comparison between high and low resolution frames.\relax }}{69}{figure.caption.16}}
\newlabel{fig:bg_false_positives}{{5.2}{69}{Percentage of false positives detected across all background subtraction algorithms drawing a comparison between high and low resolution frames.\relax }{figure.caption.16}{}}
\@writefile{lof}{\contentsline {figure}{\numberline {5.3}{\ignorespaces Average FPS for the MOG background subtraction algorithm across numerous sensor network variations.\relax }}{70}{figure.caption.17}}
\newlabel{fig:mog_fps}{{5.3}{70}{Average FPS for the MOG background subtraction algorithm across numerous sensor network variations.\relax }{figure.caption.17}{}}
\@writefile{lof}{\contentsline {figure}{\numberline {5.4}{\ignorespaces Average frame processing time for the MOG background subtraction algorithm across numerous sensor network variations.\relax }}{70}{figure.caption.18}}
\newlabel{fig:mog_afpt}{{5.4}{70}{Average frame processing time for the MOG background subtraction algorithm across numerous sensor network variations.\relax }{figure.caption.18}{}}
\citation{ziv2004}
\citation{kae2002}
\@writefile{lof}{\contentsline {figure}{\numberline {5.5}{\ignorespaces Average FPS for the MOG2 background subtraction algorithm across all sensor network variations.\relax }}{71}{figure.caption.19}}
\newlabel{fig:mog2_fps}{{5.5}{71}{Average FPS for the MOG2 background subtraction algorithm across all sensor network variations.\relax }{figure.caption.19}{}}
\@writefile{lof}{\contentsline {figure}{\numberline {5.6}{\ignorespaces Average frame processing time for the MOG2 background subtraction algorithm across all sensor network variations.\relax }}{71}{figure.caption.20}}
\newlabel{fig:mog2_afpt}{{5.6}{71}{Average frame processing time for the MOG2 background subtraction algorithm across all sensor network variations.\relax }{figure.caption.20}{}}
\@writefile{lof}{\contentsline {figure}{\numberline {5.7}{\ignorespaces Average FPS for the GMG background subtraction algorithm across numerous sensor network variations.\relax }}{73}{figure.caption.21}}
\newlabel{fig:gmg_fps}{{5.7}{73}{Average FPS for the GMG background subtraction algorithm across numerous sensor network variations.\relax }{figure.caption.21}{}}
\@writefile{lof}{\contentsline {figure}{\numberline {5.8}{\ignorespaces Average frame processing time for the GMG background subtraction algorithm across numerous sensor network variations.\relax }}{73}{figure.caption.22}}
\newlabel{fig:gmg_afpt}{{5.8}{73}{Average frame processing time for the GMG background subtraction algorithm across numerous sensor network variations.\relax }{figure.caption.22}{}}
\@writefile{toc}{\contentsline {subsection}{\numberline {5.4.2}Absolute Frame Difference Algorithm}{73}{subsection.5.4.2}}
\newlabel{subsec:fd}{{5.4.2}{73}{Absolute Frame Difference Algorithm}{subsection.5.4.2}{}}
\@writefile{lof}{\contentsline {figure}{\numberline {5.9}{\ignorespaces Average FPS for the absolute frame differencing algorithm across all sensor network variations.\relax }}{74}{figure.caption.23}}
\newlabel{fig:fd_fps}{{5.9}{74}{Average FPS for the absolute frame differencing algorithm across all sensor network variations.\relax }{figure.caption.23}{}}
\@writefile{lof}{\contentsline {figure}{\numberline {5.10}{\ignorespaces Average frame processing time for the absolute frame differencing algorithm across all sensor network variations.\relax }}{74}{figure.caption.24}}
\newlabel{fig:fd_afpt}{{5.10}{74}{Average frame processing time for the absolute frame differencing algorithm across all sensor network variations.\relax }{figure.caption.24}{}}
\@writefile{toc}{\contentsline {subsection}{\numberline {5.4.3}Viola Jones Algorithm}{75}{subsection.5.4.3}}
\newlabel{subsec:vj}{{5.4.3}{75}{Viola Jones Algorithm}{subsection.5.4.3}{}}
\@writefile{lof}{\contentsline {figure}{\numberline {5.11}{\ignorespaces Average FPS for the Viola-Jones algorithm across all sensor network variations.\relax }}{76}{figure.caption.25}}
\newlabel{fig:vj_fps}{{5.11}{76}{Average FPS for the Viola-Jones algorithm across all sensor network variations.\relax }{figure.caption.25}{}}
\@writefile{lof}{\contentsline {figure}{\numberline {5.12}{\ignorespaces Average frame processing time for the Viola-Jones algorithm across all sensor network variations.\relax }}{76}{figure.caption.26}}
\newlabel{fig:vj_afpt}{{5.12}{76}{Average frame processing time for the Viola-Jones algorithm across all sensor network variations.\relax }{figure.caption.26}{}}
\@writefile{toc}{\contentsline {subsection}{\numberline {5.4.4}Histogram of Oriented Gradients Algorithm}{76}{subsection.5.4.4}}
\newlabel{subsec:hog}{{5.4.4}{76}{Histogram of Oriented Gradients Algorithm}{subsection.5.4.4}{}}
\@writefile{lof}{\contentsline {figure}{\numberline {5.13}{\ignorespaces Average FPS for the HOG algorithm across all sensor network variations.\relax }}{77}{figure.caption.27}}
\newlabel{fig:hog_fps}{{5.13}{77}{Average FPS for the HOG algorithm across all sensor network variations.\relax }{figure.caption.27}{}}
\@writefile{lof}{\contentsline {figure}{\numberline {5.14}{\ignorespaces Average frame processing time for the HOG algorithm across all sensor network variations.\relax }}{77}{figure.caption.28}}
\newlabel{fig:hog_afpt}{{5.14}{77}{Average frame processing time for the HOG algorithm across all sensor network variations.\relax }{figure.caption.28}{}}
\@writefile{lof}{\contentsline {figure}{\numberline {5.15}{\ignorespaces Maximum detection range of the Viola Jones algorithm.\relax }}{78}{figure.caption.29}}
\newlabel{fig:vj_distance}{{5.15}{78}{Maximum detection range of the Viola Jones algorithm.\relax }{figure.caption.29}{}}
\@writefile{toc}{\contentsline {subsection}{\numberline {5.4.5}Motion Effects}{79}{subsection.5.4.5}}
\@writefile{lof}{\contentsline {figure}{\numberline {5.16}{\ignorespaces MSP showing FPS variation for videos without motion.\relax }}{79}{figure.caption.30}}
\newlabel{fig:msp}{{5.16}{79}{MSP showing FPS variation for videos without motion.\relax }{figure.caption.30}{}}
\@writefile{toc}{\contentsline {section}{\numberline {5.5}Summary}{80}{section.5.5}}
\newlabel{sec:findings_summary}{{5.5}{80}{Summary}{section.5.5}{}}
\citation{ras2016}
\@writefile{toc}{\contentsline {chapter}{\numberline {6}Conclusion and Future Work}{82}{chapter.6}}
\@writefile{lof}{\addvspace {10\p@ }}
\@writefile{lot}{\addvspace {10\p@ }}
\@writefile{toc}{\contentsline {section}{\numberline {6.1}Summary of Research}{82}{section.6.1}}
\newlabel{sec:proj_summary}{{6.1}{82}{Summary of Research}{section.6.1}{}}
\citation{kae2002}
\citation{ziv2004}
\citation{god2012}
\citation{vio2001}
\citation{dal2005}
\@writefile{toc}{\contentsline {section}{\numberline {6.2}Contributions of the Research}{83}{section.6.2}}
\newlabel{sec:contributions}{{6.2}{83}{Contributions of the Research}{section.6.2}{}}
\citation{ras2016}
\@writefile{lot}{\contentsline {table}{\numberline {6.1}{\ignorespaces Costs of various components of the proposed sensor network\relax }}{84}{table.caption.31}}
\newlabel{table:costs}{{6.1}{84}{Costs of various components of the proposed sensor network\relax }{table.caption.31}{}}
\@writefile{toc}{\contentsline {section}{\numberline {6.3}Future Work}{85}{section.6.3}}
\newlabel{sec:future_work}{{6.3}{85}{Future Work}{section.6.3}{}}
\citation{fer2014}
\bibstyle{apa}
\bibdata{C:/Users/Paul/Drive/Rhodes/2016/Latex/thesis}
\@writefile{toc}{\contentsline {chapter}{References}{86}{Item.16}}
\bibcite{afo2016}{{1}{2016}{{AForge.NET}}{{}}}
\bibcite{ard2016}{{2}{2016}{{Arduino}}{{}}}
\bibcite{atm2016}{{3}{2016}{{Atmel}}{{}}}
\bibcite{bel2014}{{4}{2014}{{Bell}}{{}}}
\bibcite{bie2015}{{5}{2015}{{Biedermann et~al.}}{{}}}
\bibcite{bou2014}{{6}{2014}{{Bouchrika et~al.}}{{}}}
\bibcite{bra2008}{{7}{2008}{{Bradski and Kaehler}}{{}}}
\bibcite{cox2014}{{8}{2014}{{Cox}}{{}}}
\bibcite{dli2016}{{9}{2016}{{D-Link~Systems}}{{}}}
\bibcite{dal2005}{{10}{2005}{{Dalal and Triggs}}{{}}}
\bibcite{dem2012}{{11}{2012}{{Demaagd et~al.}}{{}}}
\bibcite{dix2014}{{12}{2014}{{Dixit and Dhayagonde}}{{}}}
\bibcite{fer2014}{{13}{2014}{{Ferdoush and Li}}{{}}}
\bibcite{for2008}{{14}{2008}{{Foroughi et~al.}}{{}}}
\bibcite{god2012}{{15}{2012}{{Godbehere et~al.}}{{}}}
\bibcite{gri2014}{{16}{2014}{{Grimmett}}{{}}}
\bibcite{gru2015}{{17}{2015}{{Grus}}{{}}}
\bibcite{gub2013}{{18}{2013}{{Gubbi et~al.}}{{}}}
\bibcite{hoy2015}{{19}{2015}{{Hoye and Monaghan}}{{}}}
\bibcite{hua2014}{{20}{2014}{{Huang}}{{}}}
\bibcite{ing2014}{{21}{2014}{{Ingham et~al.}}{{}}}
\bibcite{int2016}{{22}{2016}{{Intel}}{{}}}
\bibcite{iov2004}{{23}{2004}{{Iovine}}{{}}}
\bibcite{isp2016}{{24}{2016}{{iSpy}}{{}}}
\bibcite{jai2014}{{25}{2014}{{Jain et~al.}}{{}}}
\bibcite{kae2002}{{26}{2002}{{KaewTraKulPong and Bowden}}{{}}}
\bibcite{kau2010}{{27}{2010}{{Kaur}}{{}}}
\bibcite{mot2016}{{28}{2016}{{Lavrsen}}{{}}}
\bibcite{lut2009}{{29}{2009}{{Lutz}}{{}}}
\bibcite{lyo2007}{{30}{2007}{{Lyon}}{{}}}
\bibcite{may2009}{{31}{2009}{{May}}{{}}}
\bibcite{mio2012}{{32}{2012}{{Miorandi et~al.}}{{}}}
\bibcite{mon2016}{{33}{2016}{{Monk}}{{}}}
\bibcite{ngu2015}{{34}{2015}{{Nguyen et~al.}}{{}}}
\bibcite{ope2016a}{{35}{2016a}{{OpenCV}}{{}}}
\bibcite{ope2016b}{{36}{2016b}{{OpenCV}}{{}}}
\bibcite{oth2008}{{37}{2008}{{Othman}}{{}}}
\bibcite{paj2015}{{38}{2015}{{Pajankar}}{{}}}
\bibcite{ped2011}{{39}{2011}{{Pedregosa et~al.}}{{}}}
\bibcite{pra2014}{{40}{2014}{{Prasad et~al.}}{{}}}
\bibcite{pyt2016}{{41}{2016}{{Python}}{{}}}
\bibcite{ras2016}{{42}{2016}{{{Raspberry Pi Foundation}}}{{}}}
\bibcite{sch2013}{{43}{2013}{{Schubert et~al.}}{{}}}
\bibcite{sha2007}{{44}{2007}{{Shah et~al.}}{{}}}
\bibcite{sim2016}{{45}{2016}{{SimpleCV}}{{}}}
\bibcite{sol2011}{{46}{2011}{{Solomon and Breckon}}{{}}}
\bibcite{son2014}{{47}{2014}{{Sonka et~al.}}{{}}}
\bibcite{tho2006}{{48}{2006}{{Thomas}}{{}}}
\bibcite{ubu2016}{{49}{2016}{{{Ubuntu MATE Team}}}{{}}}
\bibcite{vio2001}{{50}{2001}{{Viola and Jones}}{{}}}
\bibcite{vuj2014}{{51}{2014}{{Vujovi{\'c} and Maksimovi{\'c}}}{{}}}
\bibcite{vuj2015}{{52}{2015}{{Vujovi{\'c} and Maksimovi{\'c}}}{{}}}
\bibcite{wat2009}{{53}{2009}{{Watt}}{{}}}
\bibcite{all2003}{{54}{2003}{{{Wi-Fi Alliance}}}{{}}}
\bibcite{xia2012}{{55}{2012}{{Xia et~al.}}{{}}}
\bibcite{xmo2016}{{56}{2016}{{{XMOS Ltd.}}}{{}}}
\bibcite{iec2014}{{57}{2014}{{Yinbiao et~al.}}{{}}}
\bibcite{zha2013}{{58}{2013}{{Zhang et~al.}}{{}}}
\bibcite{zhu2006}{{59}{2006}{{Zhu et~al.}}{{}}}
\bibcite{ziv2004}{{60}{2004}{{Zivkovic}}{{}}}
