\addvspace {10\p@ }
\addvspace {10\p@ }
\addvspace {10\p@ }
\addvspace {10\p@ }
\contentsline {table}{\numberline {4.1}{\ignorespaces Prerequisite Python packages\relax }}{46}{table.caption.7}
\contentsline {table}{\numberline {4.2}{\ignorespaces Sensor network implementation configurations\relax }}{55}{table.caption.9}
\addvspace {10\p@ }
\contentsline {table}{\numberline {5.1}{\ignorespaces Light sensitivity experiment using USB, IP and Pi video cameras\relax }}{66}{table.caption.13}
\contentsline {table}{\numberline {5.2}{\ignorespaces Power requirements of Raspberry Pi micro-controllers\relax }}{67}{table.caption.14}
\contentsline {table}{\numberline {5.3}{\ignorespaces Average power draw of Raspberry Pi micro-controllers in various situations\relax }}{68}{table.caption.15}
\addvspace {10\p@ }
\contentsline {table}{\numberline {6.1}{\ignorespaces Costs of various components of the proposed sensor network\relax }}{84}{table.caption.31}
